…
seq_number <- xr_gbp |>
  # Select the first record.
  slice(1) |>
  # Get the sequential number.
  select(Numero_secuencial) |>
  # Convert to numeric.
  as.double()

# Extract the series.
time_series <- bde_series_load(seq_number, series_label = "EUR_GBP_XR") |>
  filter(Date >= "2010-01-01" & Date <= "2020-12-31") |>
  drop_na()

time_series
#> # A tibble: 2,816 × 2
#>    Date       EUR_GBP_XR
#>    <date>          <dbl>
#>  1 2010-01-04      0.891
#>  2 2010-01-05      0.900
#>  3 2010-01-06      0.899
#>  4 2010-01-07      0.900
#>  5 2010-01-08      0.893
#>  6 2010-01-11      0.899
#>  7 2010-01-12      0.897
#>  8 2010-01-13      0.895
#>  9 2010-01-14      0.890
#> 10 2010-01-15      0.881
#> # ℹ 2,806 more rows
```
…
