Load a single BdE time-series. — bde_series_load • tidyBdE
…
# Data
bde_series_load(573234, extract_metadata = FALSE)

#> # A tibble: 5,892 x 2
#>    Date       `573234`
#>    <date>        <dbl>
#>  1 1999-01-04     1.18
#>  2 1999-01-05     1.18
#>  3 1999-01-06     1.17
#>  4 1999-01-07     1.16
#>  5 1999-01-08     1.17
#>  6 1999-01-11     1.16
#>  7 1999-01-12     1.15
#>  8 1999-01-13     1.17
#>  9 1999-01-14     1.17
#> 10 1999-01-15     1.16
#> # ... with 5,882 more rows
…
#> tidyBdE> Extracting series 573234
#> 
#> tidyBdE> Downloading serie 573234 from file TC_1_1.csv (alias TC_1_1.1).
#> tidyBdE> Caching on temporary directory C:\Users\RUNNER~1\AppData\Local\Temp\Rtmpqg8r6K/TC
#> tidyBde> Reading file tc_1_1.csv from cache.
#> tidyBdE> Parsing dates
#> tidyBdE> Parsing fields to double
#> tidyBdE> Extracting series 573214
#> 
#> tidyBdE> Downloading serie 573214 from file TC_1_1.csv (alias TC_1_1.4).
#> tidyBdE> Caching on temporary directory C:\Users\RUNNER~1\AppData\Local\Temp\Rtmpqg8r6K/TC
#> tidyBde> Reading file tc_1_1.csv from cache.
#> tidyBdE> Parsing dates
#> tidyBdE> Parsing fields to double
#> # A tibble: 5,892 x 3
#>    Date       `US/EUR` `GBP/EUR`
#>    <date>        <dbl>     <dbl>
#>  1 1999-01-04     1.18     0.711
#>  2 1999-01-05     1.18     0.712
#>  3 1999-01-06     1.17     0.708
#>  4 1999-01-07     1.16     0.706
#>  5 1999-01-08     1.17     0.709
#>  6 1999-01-11     1.16     0.704
#>  7 1999-01-12     1.15     0.707
#>  8 1999-01-13     1.17     0.708
#>  9 1999-01-14     1.17     0.706
#> 10 1999-01-15     1.16     0.704
#> # ... with 5,882 more rows
…
