Load BdE full time-series files — bde_series_full_load • tidyBdE
…
# Data
bde_series_full_load("TI_1_1.csv")
#> # A tibble: 11,539 x 9
#>    Date       TI_1_1.1 TI_1_1.2 TI_1_1.3 TI_1_1.4 TI_1_1.5 TI_1_1.7 TI_1_1.9
#>    <date>        <dbl>    <dbl>    <dbl>    <dbl>    <dbl>    <dbl>    <dbl>
#>  1 1990-05-14       NA     14.6     14.6       NA       NA       NA       NA
#>  2 1990-05-15       NA     NA       NA         NA       NA       NA       NA
#>  3 1990-05-16       NA     NA       NA         NA       NA       NA       NA
#>  4 1990-05-17       NA     NA       NA         NA       NA       NA       NA
#>  5 1990-05-18       NA     NA       NA         NA       NA       NA       NA
#>  6 1990-05-19       NA     NA       NA         NA       NA       NA       NA
#>  7 1990-05-20       NA     NA       NA         NA       NA       NA       NA
#>  8 1990-05-21       NA     NA       NA         NA       NA       NA       NA
#>  9 1990-05-22       NA     NA       NA         NA       NA       NA       NA
#> 10 1990-05-23       NA     14.6     14.6       NA       NA       NA       NA
#> # ... with 11,529 more rows, and 1 more variable: TI_1_1.10 <dbl>
…
