…
[`bde_series_load()`](https://ropenspain.github.io/tidyBdE/reference/bde_series.md)
for loading arbitrary bulk CSV series and
[`bde_catalog_search()`](https://ropenspain.github.io/tidyBdE/reference/bde_catalogs.md)
for finding series in catalog metadata.

Selected indicators and metadata:
[`bde_ind_db`](https://ropenspain.github.io/tidyBdE/reference/bde_ind_db.md)

## Examples

``` r
# \donttest{
bde_ind_gdp_var()
#> # A tibble: 121 × 2
#>    Date       GDP_YoY
#>    <date>       <dbl>
#>  1 1996-03-01    2.46
#>  2 1996-06-01    2.49
#>  3 1996-09-01    2.87
#>  4 1996-12-01    2.61
#>  5 1997-03-01    3.04
#>  6 1997-06-01    3.26
#>  7 1997-09-01    3.55
#>  8 1997-12-01    4.49
#>  9 1998-03-01    4.33
#> 10 1998-06-01    4.53
#> # ℹ 111 more rows
…
