…
# Data
bde_series_load(573234, extract_metadata = FALSE)
#> # A tibble: 7,032 × 2
#>    Date       `573234`
#>    <date>        <dbl>
#>  1 1999-01-04     1.18
#>  2 1999-01-05     1.18
#>  3 1999-01-06     1.17
#>  4 1999-01-07     1.16
#>  5 1999-01-08     1.17
#>  6 1999-01-11     1.16
#>  7 1999-01-12     1.15
#>  8 1999-01-13     1.17
#>  9 1999-01-14     1.17
#> 10 1999-01-15     1.16
#> # ℹ 7,022 more rows
…
wide <- bde_series_load(c(573234, 573214),
  series_label = c("US/EUR", "GBP/EUR")
)

# Wide format
wide
#> # A tibble: 7,032 × 3
#>    Date       `US/EUR` `GBP/EUR`
#>    <date>        <dbl>     <dbl>
#>  1 1999-01-04     1.18     0.711
#>  2 1999-01-05     1.18     0.712
#>  3 1999-01-06     1.17     0.708
#>  4 1999-01-07     1.16     0.706
#>  5 1999-01-08     1.17     0.709
#>  6 1999-01-11     1.16     0.704
#>  7 1999-01-12     1.15     0.707
#>  8 1999-01-13     1.17     0.708
#>  9 1999-01-14     1.17     0.706
#> 10 1999-01-15     1.16     0.704
#> # ℹ 7,022 more rows


# Long format
long <- bde_series_load(c(573234, 573214),
  series_label = c("US/EUR", "GBP/EUR"),
  out_format = "long"
)

long
#> # A tibble: 14,064 × 3
#>    Date       serie_name serie_value
#>    <date>     <fct>            <dbl>
#>  1 1999-01-04 US/EUR            1.18
#>  2 1999-01-05 US/EUR            1.18
#>  3 1999-01-06 US/EUR            1.17
#>  4 1999-01-07 US/EUR            1.16
#>  5 1999-01-08 US/EUR            1.17
#>  6 1999-01-11 US/EUR            1.16
#>  7 1999-01-12 US/EUR            1.15
#>  8 1999-01-13 US/EUR            1.17
#>  9 1999-01-14 US/EUR            1.17
#> 10 1999-01-15 US/EUR            1.16
#> # ℹ 14,054 more rows
…
