…
# Data
bde_series_full_load("TI_1_1.csv")
#> # A tibble: 7,066 × 5
#>    Date       TI_1_1.1 TI_1_1.2 TI_1_1.3 TI_1_1.4
#>    <date>        <dbl>    <dbl>    <dbl>    <dbl>
#>  1 1999-01-01        3       NA     4.5      2   
#>  2 1999-01-04        3       NA     3.25     2.75
#>  3 1999-01-05        3       NA     3.25     2.75
#>  4 1999-01-06        3       NA     3.25     2.75
#>  5 1999-01-07        3       NA     3.25     2.75
#>  6 1999-01-08        3       NA     3.25     2.75
#>  7 1999-01-11        3       NA     3.25     2.75
#>  8 1999-01-12        3       NA     3.25     2.75
#>  9 1999-01-13        3       NA     3.25     2.75
#> 10 1999-01-14        3       NA     3.25     2.75
#> # ℹ 7,056 more rows
…
