Relevant Indicators of Spain — bde_ind_gdp_var • tidyBdE
…
    This functions are convenient wrappers of bde_series_load() referencing
specific series. Use verbose = TRUE/extract_metadata = TRUE to see the
specification and the source.

    See also

    bde_series_load(), bde_catalog_search()

    Examples

# \donttest{
bde_ind_euribor_12m_monthly()

#> # A tibble: 245 x 2
#>    Date       Euribor_12M_Monthly
#>    <date>                   <dbl>
#>  1 2001-01-01                4.57
#>  2 2001-02-01                4.59
#>  3 2001-03-01                4.47
#>  4 2001-04-01                4.48
#>  5 2001-05-01                4.52
#>  6 2001-06-01                4.31
#>  7 2001-07-01                4.31
#>  8 2001-08-01                4.11
#>  9 2001-09-01                3.77
#> 10 2001-10-01                3.37
#> # … with 235 more rows
…
