Load BdE time series from bulk CSV files — bde_series • tidyBdE
…
# Load data.
bde_series_load(573234, extract_metadata = FALSE)
#> # A tibble: 7,164 × 2
#>    Date       `573234`
#>    <date>        <dbl>
#>  1 1999-01-04     1.18
#>  2 1999-01-05     1.18
#>  3 1999-01-06     1.17
#>  4 1999-01-07     1.16
#>  5 1999-01-08     1.17
#>  6 1999-01-11     1.16
#>  7 1999-01-12     1.15
#>  8 1999-01-13     1.17
#>  9 1999-01-14     1.17
#> 10 1999-01-15     1.16
#> # ℹ 7,154 more rows
…
wide <- bde_series_load(c(573234, 573214),
  series_label = c("US/EUR", "GBP/EUR")
)

# Show wide output.
wide
#> # A tibble: 7,164 × 3
#>    Date       `US/EUR` `GBP/EUR`
#>    <date>        <dbl>     <dbl>
#>  1 1999-01-04     1.18     0.711
#>  2 1999-01-05     1.18     0.712
#>  3 1999-01-06     1.17     0.708
#>  4 1999-01-07     1.16     0.706
#>  5 1999-01-08     1.17     0.709
#>  6 1999-01-11     1.16     0.704
#>  7 1999-01-12     1.15     0.707
#>  8 1999-01-13     1.17     0.708
#>  9 1999-01-14     1.17     0.706
#> 10 1999-01-15     1.16     0.704
#> # ℹ 7,154 more rows

# Show long output.
long <- bde_series_load(c(573234, 573214),
  series_label = c("US/EUR", "GBP/EUR"),
  out_format = "long"
)

long
#> # A tibble: 14,328 × 3
#>    Date       serie_name serie_value
#>    <date>     <fct>            <dbl>
#>  1 1999-01-04 US/EUR            1.18
#>  2 1999-01-05 US/EUR            1.18
#>  3 1999-01-06 US/EUR            1.17
#>  4 1999-01-07 US/EUR            1.16
#>  5 1999-01-08 US/EUR            1.17
#>  6 1999-01-11 US/EUR            1.16
#>  7 1999-01-12 US/EUR            1.15
#>  8 1999-01-13 US/EUR            1.17
#>  9 1999-01-14 US/EUR            1.17
#> 10 1999-01-15 US/EUR            1.16
#> # ℹ 14,318 more rows
…
# Show metadata for a complete bulk CSV file.
bde_series_full_load("TI_1_1.csv", extract_metadata = TRUE)
#> # A tibble: 6 × 5
#>   Date                        TI_1_1.1                TI_1_1.2 TI_1_1.3 TI_1_1.4
#>   <chr>                       <chr>                   <chr>    <chr>    <chr>   
#> 1 CÓDIGO DE LA SERIE          D_DTFK09A0              D_DTFK0… D_DNBCE… D_DNBCE…
#> 2 NÚMERO SECUENCIAL           4562340                 4562341  4573260  4573259 
#> 3 ALIAS DE LA SERIE           TI_1_1.1                TI_1_1.2 TI_1_1.3 TI_1_1.4
#> 4 DESCRIPCIÓN DE LA SERIE     Tipo de interés. Opera… Tipos d… Tipo de… Tipo de…
#> 5 DESCRIPCIÓN DE LAS UNIDADES Porcentaje              Porcent… Porcent… Porcent…
#> 6 FRECUENCIA                  LABORABLE               LABORAB… LABORAB… LABORAB…

# Load a complete bulk CSV file.
bde_series_full_load("TI_1_1.csv")
#> # A tibble: 7,165 × 5
#>    Date       TI_1_1.1 TI_1_1.2 TI_1_1.3 TI_1_1.4
#>    <date>        <dbl>    <dbl>    <dbl>    <dbl>
#>  1 1999-01-01        3       NA     4.5      2   
#>  2 1999-01-04        3       NA     3.25     2.75
#>  3 1999-01-05        3       NA     3.25     2.75
#>  4 1999-01-06        3       NA     3.25     2.75
#>  5 1999-01-07        3       NA     3.25     2.75
#>  6 1999-01-08        3       NA     3.25     2.75
#>  7 1999-01-11        3       NA     3.25     2.75
#>  8 1999-01-12        3       NA     3.25     2.75
#>  9 1999-01-13        3       NA     3.25     2.75
#> 10 1999-01-14        3       NA     3.25     2.75
#> # ℹ 7,155 more rows
…
