Search BdE catalogs — bde_catalog_search • tidyBdE
…
    See also

    bde_catalog_load(), grep()

    Examples

# \donttest{
# Simple search (needs to be in Spanish)
# !! PIB [es] == GDP [en]

bde_catalog_search("PIB")

#> # A tibble: 479 × 17
#>    Nombre_de_la_serie    Numero_secuencial Alias_de_la_ser… Nombre_del_archivo_…
#>    <chr>                 <chr>             <chr>            <chr>               
#>  1 DSPC102016WB11000_ES… 2665111           BE_1_1.7         BE0101.csv          
#>  2 DSPC102016WB1QB00_ES… 2665112           BE_1_1.8         BE0101.csv          
#>  3 DSPC102016PB1QB00_ES… 2665115           BE_1_1.11        BE0101.csv          
#>  4 DTNSEC2010_S0000P_AP… 2563971           BE_1_6.1         BE0106.csv          
#>  5 DTNSEC2010_S0000P_AP… 2563952           BE_1_6.2         BE0106.csv          
#>  6 DTNSEC2010_S0000P_AP… 2563953           BE_1_6.3         BE0106.csv          
#>  7 DTNSEC2010_S0000P_AP… 2563954           BE_1_6.4         BE0106.csv          
#>  8 DTNSEC2010_S0000P_AP… 2563955           BE_1_6.5         BE0106.csv          
#>  9 DTNSEC2010_S0000P_AP… 2563956           BE_1_6.6         BE0106.csv          
#> 10 DTNSEC2010_S0000P_AP… 2563957           BE_1_6.7         BE0106.csv          
#> # … with 469 more rows, and 13 more variables: Descripcion_de_la_serie <chr>,
#> #   Tipo_de_variable <chr>, Codigo_de_unidades <chr>, Exponente <dbl>,
#> #   Numero_de_decimales <dbl>, Descripcion_de_unidades_y_exponente <chr>,
#> #   Frecuencia_de_la_serie <chr>, Fecha_de_la_primera_observacion <date>,
#> #   Fecha_de_la_ultima_observacion <date>, Numero_de_observaciones <dbl>,
#> #   Titulo_de_la_serie <chr>, Fuente <chr>, Notas <chr>
…
