Load BdE catalogs — bde_catalog_load • tidyBdE
…
    Other catalog: 
bde_catalog_search(),
bde_catalog_update()

    Examples

# \donttest{
bde_catalog_load("TI", verbose = TRUE)
#> tidyBdE> Caching on temporary directory C:\Users\RUNNER~1\AppData\Local\Temp\RtmpQdILnr
#> tidyBdE> Cache dir is C:\Users\RUNNER~1\AppData\Local\Temp\RtmpQdILnr
#> tidyBdE> Updating catalogs: TI
#> tidyBdE> Downloading file from https://www.bde.es/webbde/es/estadis/infoest/series/catalogo_ti.csv
#> 
#> tidyBdE> Parsing dates
#> # A tibble: 68 x 17
#>    Nombre_de_la_serie Numero_secuencial Alias_de_la_serie Nombre_del_archivo_co~
#>    <chr>                          <dbl> <chr>             <chr>                 
#>  1 D_DTFK01A0                   1654131 TI_1_1.1          TI_1_1.csv            
#>  2 D_DTFK03A0                   1654132 TI_1_1.2          TI_1_1.csv            
#>  3 D_DTFK02A0                   1654133 TI_1_1.3          TI_1_1.csv            
#>  4 D_DNBBBP72                    903705 TI_1_1.4          TI_1_1.csv            
#>  5 D_DBEI00AJ00F                1589846 TI_1_1.5          TI_1_1.csv            
#>  6 D_DBEA00AJ00F                1589850 TI_1_1.7          TI_1_1.csv            
#>  7 D_DNBBBA72                    581532 TI_1_1.9          TI_1_1.csv            
#>  8 D_DNBBBB72                    581533 TI_1_1.10         TI_1_1.csv            
#>  9 D_DE721006                   1654134 TI_1_2.1          TI_1_2.csv            
#> 10 D_DE722706                     58233 TI_1_2.2          TI_1_2.csv            
#> # ... with 58 more rows, and 13 more variables: Descripcion_de_la_serie <chr>,
#> #   Tipo_de_variable <chr>, Codigo_de_unidades <chr>, Exponente <dbl>,
#> #   Numero_de_decimales <dbl>, Descripcion_de_unidades_y_exponente <chr>,
#> #   Frecuencia_de_la_serie <chr>, Fecha_de_la_primera_observacion <date>,
#> #   Fecha_de_la_ultima_observacion <date>, Numero_de_observaciones <dbl>,
#> #   Titulo_de_la_serie <chr>, Fuente <chr>, Notas <chr>
…
