…
## Examples

``` r
# \donttest{
bde_catalog_load("TI", verbose = TRUE)
#> ℹ Using temporary cache directory /tmp/RtmpwleND7.
#> ℹ Downloading catalog "TI".
#> ✔ Using cache directory /tmp/RtmpwleND7.
#> ℹ Updating catalogs: TI.
#> ℹ Downloading file from <https://www.bde.es/webbe/es/estadisticas/compartido/datos/csv/catalogo_ti.csv>.
#> ℹ Parsing date columns.
#> # A tibble: 49 × 17
#>    Nombre_de_la_serie Numero_secuencial Alias_de_la_serie Nombre_del_archivo_c…¹
#>    <chr>                          <dbl> <chr>             <chr>                 
#>  1 D_DTFK09A0                   4562340 TI_1_1.1          TI_1_1.csv            
#>  2 D_DTFK08A0                   4562341 TI_1_1.2          TI_1_1.csv            
#>  3 D_DNBCEA72                   4573260 TI_1_1.3          TI_1_1.csv            
#>  4 D_DNBCEB72                   4573259 TI_1_1.4          TI_1_1.csv            
#>  5 D_DTES00B7                     80395 TI_1_3.1          TI_1_3.csv            
#>  6 D_DTES00S7                     80445 TI_1_3.2          TI_1_3.csv            
#>  7 D_DTES00T7                     80455 TI_1_3.3          TI_1_3.csv            
#>  8 D_DTES00U7                     80465 TI_1_3.4          TI_1_3.csv            
#>  9 D_DTES00V7                     80475 TI_1_3.5          TI_1_3.csv            
#> 10 D_G0B1F0ZD                     97255 TI_1_3.6          TI_1_3.csv            
#> # ℹ 39 more rows
#> # ℹ abbreviated name: ¹​Nombre_del_archivo_con_los_valores_de_la_serie
#> # ℹ 13 more variables: Descripcion_de_la_serie <chr>, Tipo_de_variable <chr>,
#> #   Codigo_de_unidades <chr>, Exponente <dbl>, Numero_de_decimales <dbl>,
#> #   Descripcion_de_unidades_y_exponente <chr>, Frecuencia_de_la_serie <chr>,
#> #   Fecha_de_la_primera_observacion <date>,
#> #   Fecha_de_la_ultima_observacion <date>, Numero_de_observaciones <dbl>, …
…
