…
Other catalog:
[`bde_catalog_load()`](https://ropenspain.github.io/tidyBdE/reference/bde_catalog_load.md),
[`bde_catalog_update()`](https://ropenspain.github.io/tidyBdE/reference/bde_catalog_update.md)

## Examples

``` r
# \donttest{
# Simple search (needs to be in Spanish)
# !! PIB [es] == GDP [en]

bde_catalog_search("PIB")
#> # A tibble: 400 × 17
#>    Nombre_de_la_serie Numero_secuencial Alias_de_la_serie Nombre_del_archivo_c…¹
#>    <chr>              <chr>             <chr>             <chr>                 
#>  1 DSPC102020WB11000… 4669410           BE_1_1.7          BE0101.csv            
#>  2 DTNSEC2010_S0000P… 2563971           BE_1_6.1          BE0106.csv            
#>  3 DTNSEC2010_S0000P… 2563952           BE_1_6.2          BE0106.csv            
#>  4 DTNSEC2010_S0000P… 2563953           BE_1_6.3          BE0106.csv            
#>  5 DTNSEC2010_S0000P… 2563954           BE_1_6.4          BE0106.csv            
#>  6 DTNSEC2010_S0000P… 2563955           BE_1_6.5          BE0106.csv            
#>  7 DTNSEC2010_S0000P… 2563956           BE_1_6.6          BE0106.csv            
#>  8 DTNSEC2010_S0000P… 2563957           BE_1_6.7          BE0106.csv            
#>  9 DTNSEC2010_S0000P… 2563958           BE_1_6.8          BE0106.csv            
#> 10 DTNSEC2010_S0000P… 4342489           BE_1_6.9          BE0106.csv            
#> # ℹ 390 more rows
#> # ℹ abbreviated name: ¹​Nombre_del_archivo_con_los_valores_de_la_serie
#> # ℹ 13 more variables: Descripcion_de_la_serie <chr>, Tipo_de_variable <chr>,
#> #   Codigo_de_unidades <chr>, Exponente <dbl>, Numero_de_decimales <dbl>,
#> #   Descripcion_de_unidades_y_exponente <chr>, Frecuencia_de_la_serie <chr>,
#> #   Fecha_de_la_primera_observacion <date>,
#> #   Fecha_de_la_ultima_observacion <date>, Numero_de_observaciones <dbl>, …
…
