…
``` r

# Extract the first series.
# Use tidyverse style.
fr |>
  # Select the ID.
  select(Numero_secuencial) |>
  # Select the first observation.
  slice(1) |>
  # Convert to numeric.
  as.double() |>
  # Load the series.
  bde_series_load()
#> # A tibble: 121 × 2
#>    Date       `2563958`
#>    <date>         <dbl>
#>  1 1995-12-01      -5.1
#>  2 1996-03-01      NA  
#>  3 1996-06-01      NA  
#>  4 1996-09-01      NA  
#>  5 1996-12-01      -3.9
#>  6 1997-03-01      NA  
#>  7 1997-06-01      NA  
#>  8 1997-09-01      NA  
#>  9 1997-12-01      -3.6
#> 10 1998-03-01      NA  
#> # ℹ 111 more rows
…
